{
  "contractName": "IERC20",
  "abi": [
    {
      "anonymous": false,
      "inputs": [
        {
          "indexed": true,
          "name": "from",
          "type": "address"
        },
        {
          "indexed": true,
          "name": "to",
          "type": "address"
        },
        {
          "indexed": false,
          "name": "value",
          "type": "uint256"
        }
      ],
      "name": "Transfer",
      "type": "event"
    },
    {
      "anonymous": false,
      "inputs": [
        {
          "indexed": true,
          "name": "owner",
          "type": "address"
        },
        {
          "indexed": true,
          "name": "spender",
          "type": "address"
        },
        {
          "indexed": false,
          "name": "value",
          "type": "uint256"
        }
      ],
      "name": "Approval",
      "type": "event"
    },
    {
      "constant": true,
      "inputs": [],
      "name": "totalSupply",
      "outputs": [
        {
          "name": "",
          "type": "uint256"
        }
      ],
      "payable": false,
      "stateMutability": "view",
      "type": "function"
    },
    {
      "constant": true,
      "inputs": [
        {
          "name": "account",
          "type": "address"
        }
      ],
      "name": "balanceOf",
      "outputs": [
        {
          "name": "",
          "type": "uint256"
        }
      ],
      "payable": false,
      "stateMutability": "view",
      "type": "function"
    },
    {
      "constant": false,
      "inputs": [
        {
          "name": "recipient",
          "type": "address"
        },
        {
          "name": "amount",
          "type": "uint256"
        }
      ],
      "name": "transfer",
      "outputs": [
        {
          "name": "",
          "type": "bool"
        }
      ],
      "payable": false,
      "stateMutability": "nonpayable",
      "type": "function"
    },
    {
      "constant": true,
      "inputs": [
        {
          "name": "owner",
          "type": "address"
        },
        {
          "name": "spender",
          "type": "address"
        }
      ],
      "name": "allowance",
      "outputs": [
        {
          "name": "",
          "type": "uint256"
        }
      ],
      "payable": false,
      "stateMutability": "view",
      "type": "function"
    },
    {
      "constant": false,
      "inputs": [
        {
          "name": "spender",
          "type": "address"
        },
        {
          "name": "amount",
          "type": "uint256"
        }
      ],
      "name": "approve",
      "outputs": [
        {
          "name": "",
          "type": "bool"
        }
      ],
      "payable": false,
      "stateMutability": "nonpayable",
      "type": "function"
    },
    {
      "constant": false,
      "inputs": [
        {
          "name": "sender",
          "type": "address"
        },
        {
          "name": "recipient",
          "type": "address"
        },
        {
          "name": "amount",
          "type": "uint256"
        }
      ],
      "name": "transferFrom",
      "outputs": [
        {
          "name": "",
          "type": "bool"
        }
      ],
      "payable": false,
      "stateMutability": "nonpayable",
      "type": "function"
    }
  ],
  "metadata": "{\"compiler\":{\"version\":\"0.5.8+commit.23d335f2\"},\"language\":\"Solidity\",\"output\":{\"abi\":[{\"constant\":false,\"inputs\":[{\"name\":\"spender\",\"type\":\"address\"},{\"name\":\"amount\",\"type\":\"uint256\"}],\"name\":\"approve\",\"outputs\":[{\"name\":\"\",\"type\":\"bool\"}],\"payable\":false,\"stateMutability\":\"nonpayable\",\"type\":\"function\"},{\"constant\":true,\"inputs\":[],\"name\":\"totalSupply\",\"outputs\":[{\"name\":\"\",\"type\":\"uint256\"}],\"payable\":false,\"stateMutability\":\"view\",\"type\":\"function\"},{\"constant\":false,\"inputs\":[{\"name\":\"sender\",\"type\":\"address\"},{\"name\":\"recipient\",\"type\":\"address\"},{\"name\":\"amount\",\"type\":\"uint256\"}],\"name\":\"transferFrom\",\"outputs\":[{\"name\":\"\",\"type\":\"bool\"}],\"payable\":false,\"stateMutability\":\"nonpayable\",\"type\":\"function\"},{\"constant\":true,\"inputs\":[{\"name\":\"account\",\"type\":\"address\"}],\"name\":\"balanceOf\",\"outputs\":[{\"name\":\"\",\"type\":\"uint256\"}],\"payable\":false,\"stateMutability\":\"view\",\"type\":\"function\"},{\"constant\":false,\"inputs\":[{\"name\":\"recipient\",\"type\":\"address\"},{\"name\":\"amount\",\"type\":\"uint256\"}],\"name\":\"transfer\",\"outputs\":[{\"name\":\"\",\"type\":\"bool\"}],\"payable\":false,\"stateMutability\":\"nonpayable\",\"type\":\"function\"},{\"constant\":true,\"inputs\":[{\"name\":\"owner\",\"type\":\"address\"},{\"name\":\"spender\",\"type\":\"address\"}],\"name\":\"allowance\",\"outputs\":[{\"name\":\"\",\"type\":\"uint256\"}],\"payable\":false,\"stateMutability\":\"view\",\"type\":\"function\"},{\"anonymous\":false,\"inputs\":[{\"indexed\":true,\"name\":\"from\",\"type\":\"address\"},{\"indexed\":true,\"name\":\"to\",\"type\":\"address\"},{\"indexed\":false,\"name\":\"value\",\"type\":\"uint256\"}],\"name\":\"Transfer\",\"type\":\"event\"},{\"anonymous\":false,\"inputs\":[{\"indexed\":true,\"name\":\"owner\",\"type\":\"address\"},{\"indexed\":true,\"name\":\"spender\",\"type\":\"address\"},{\"indexed\":false,\"name\":\"value\",\"type\":\"uint256\"}],\"name\":\"Approval\",\"type\":\"event\"}],\"devdoc\":{\"details\":\"Interface of the ERC20 standard as defined in the EIP. Does not include the optional functions; to access them see `ERC20Detailed`.\",\"methods\":{\"allowance(address,address)\":{\"details\":\"Returns the remaining number of tokens that `spender` will be allowed to spend on behalf of `owner` through `transferFrom`. This is zero by default.     * This value changes when `approve` or `transferFrom` are called.\"},\"approve(address,uint256)\":{\"details\":\"Sets `amount` as the allowance of `spender` over the caller's tokens.     * Returns a boolean value indicating whether the operation succeeded.     * > Beware that changing an allowance with this method brings the risk that someone may use both the old and the new allowance by unfortunate transaction ordering. One possible solution to mitigate this race condition is to first reduce the spender's allowance to 0 and set the desired value afterwards: https://github.com/ethereum/EIPs/issues/20#issuecomment-263524729     * Emits an `Approval` event.\"},\"balanceOf(address)\":{\"details\":\"Returns the amount of tokens owned by `account`.\"},\"totalSupply()\":{\"details\":\"Returns the amount of tokens in existence.\"},\"transfer(address,uint256)\":{\"details\":\"Moves `amount` tokens from the caller's account to `recipient`.     * Returns a boolean value indicating whether the operation succeeded.     * Emits a `Transfer` event.\"},\"transferFrom(address,address,uint256)\":{\"details\":\"Moves `amount` tokens from `sender` to `recipient` using the allowance mechanism. `amount` is then deducted from the caller's allowance.     * Returns a boolean value indicating whether the operation succeeded.     * Emits a `Transfer` event.\"}}},\"userdoc\":{\"methods\":{}}},\"settings\":{\"compilationTarget\":{\"/C/Users/robin/code/rebalance/packages/contracts/node_modules/@openzeppelin/contracts/token/ERC20/IERC20.sol\":\"IERC20\"},\"evmVersion\":\"petersburg\",\"libraries\":{},\"optimizer\":{\"enabled\":false,\"runs\":200},\"remappings\":[]},\"sources\":{\"/C/Users/robin/code/rebalance/packages/contracts/node_modules/@openzeppelin/contracts/token/ERC20/IERC20.sol\":{\"keccak256\":\"0x90e8c2521653bbb1768b05889c5760031e688d9cd361f167489b89215e201b95\",\"urls\":[\"bzzr://aa8b45b57edafc3d67bc5d916327ea16807fae33f753ca163ae0c4061b789766\"]}},\"version\":1}",
  "bytecode": "0x",
  "deployedBytecode": "0x",
  "sourceMap": "",
  "deployedSourceMap": "",
  "source": "pragma solidity ^0.5.0;\n\n/**\n * @dev Interface of the ERC20 standard as defined in the EIP. Does not include\n * the optional functions; to access them see `ERC20Detailed`.\n */\ninterface IERC20 {\n    /**\n     * @dev Returns the amount of tokens in existence.\n     */\n    function totalSupply() external view returns (uint256);\n\n    /**\n     * @dev Returns the amount of tokens owned by `account`.\n     */\n    function balanceOf(address account) external view returns (uint256);\n\n    /**\n     * @dev Moves `amount` tokens from the caller's account to `recipient`.\n     *\n     * Returns a boolean value indicating whether the operation succeeded.\n     *\n     * Emits a `Transfer` event.\n     */\n    function transfer(address recipient, uint256 amount) external returns (bool);\n\n    /**\n     * @dev Returns the remaining number of tokens that `spender` will be\n     * allowed to spend on behalf of `owner` through `transferFrom`. This is\n     * zero by default.\n     *\n     * This value changes when `approve` or `transferFrom` are called.\n     */\n    function allowance(address owner, address spender) external view returns (uint256);\n\n    /**\n     * @dev Sets `amount` as the allowance of `spender` over the caller's tokens.\n     *\n     * Returns a boolean value indicating whether the operation succeeded.\n     *\n     * > Beware that changing an allowance with this method brings the risk\n     * that someone may use both the old and the new allowance by unfortunate\n     * transaction ordering. One possible solution to mitigate this race\n     * condition is to first reduce the spender's allowance to 0 and set the\n     * desired value afterwards:\n     * https://github.com/ethereum/EIPs/issues/20#issuecomment-263524729\n     *\n     * Emits an `Approval` event.\n     */\n    function approve(address spender, uint256 amount) external returns (bool);\n\n    /**\n     * @dev Moves `amount` tokens from `sender` to `recipient` using the\n     * allowance mechanism. `amount` is then deducted from the caller's\n     * allowance.\n     *\n     * Returns a boolean value indicating whether the operation succeeded.\n     *\n     * Emits a `Transfer` event.\n     */\n    function transferFrom(address sender, address recipient, uint256 amount) external returns (bool);\n\n    /**\n     * @dev Emitted when `value` tokens are moved from one account (`from`) to\n     * another (`to`).\n     *\n     * Note that `value` may be zero.\n     */\n    event Transfer(address indexed from, address indexed to, uint256 value);\n\n    /**\n     * @dev Emitted when the allowance of a `spender` for an `owner` is set by\n     * a call to `approve`. `value` is the new allowance.\n     */\n    event Approval(address indexed owner, address indexed spender, uint256 value);\n}\n",
  "sourcePath": "C:\\Users\\robin\\code\\rebalance\\packages\\contracts\\node_modules\\@openzeppelin\\contracts\\token\\ERC20\\IERC20.sol",
  "ast": {
    "absolutePath": "/C/Users/robin/code/rebalance/packages/contracts/node_modules/@openzeppelin/contracts/token/ERC20/IERC20.sol",
    "exportedSymbols": {
      "IERC20": [
        1579
      ]
    },
    "id": 1580,
    "nodeType": "SourceUnit",
    "nodes": [
      {
        "id": 1512,
        "literals": [
          "solidity",
          "^",
          "0.5",
          ".0"
        ],
        "nodeType": "PragmaDirective",
        "src": "0:23:6"
      },
      {
        "baseContracts": [],
        "contractDependencies": [],
        "contractKind": "interface",
        "documentation": "@dev Interface of the ERC20 standard as defined in the EIP. Does not include\nthe optional functions; to access them see `ERC20Detailed`.",
        "fullyImplemented": false,
        "id": 1579,
        "linearizedBaseContracts": [
          1579
        ],
        "name": "IERC20",
        "nodeType": "ContractDefinition",
        "nodes": [
          {
            "body": null,
            "documentation": "@dev Returns the amount of tokens in existence.",
            "id": 1517,
            "implemented": false,
            "kind": "function",
            "modifiers": [],
            "name": "totalSupply",
            "nodeType": "FunctionDefinition",
            "parameters": {
              "id": 1513,
              "nodeType": "ParameterList",
              "parameters": [],
              "src": "290:2:6"
            },
            "returnParameters": {
              "id": 1516,
              "nodeType": "ParameterList",
              "parameters": [
                {
                  "constant": false,
                  "id": 1515,
                  "name": "",
                  "nodeType": "VariableDeclaration",
                  "scope": 1517,
                  "src": "316:7:6",
                  "stateVariable": false,
                  "storageLocation": "default",
                  "typeDescriptions": {
                    "typeIdentifier": "t_uint256",
                    "typeString": "uint256"
                  },
                  "typeName": {
                    "id": 1514,
                    "name": "uint256",
                    "nodeType": "ElementaryTypeName",
                    "src": "316:7:6",
                    "typeDescriptions": {
                      "typeIdentifier": "t_uint256",
                      "typeString": "uint256"
                    }
                  },
                  "value": null,
                  "visibility": "internal"
                }
              ],
              "src": "315:9:6"
            },
            "scope": 1579,
            "src": "270:55:6",
            "stateMutability": "view",
            "superFunction": null,
            "visibility": "external"
          },
          {
            "body": null,
            "documentation": "@dev Returns the amount of tokens owned by `account`.",
            "id": 1524,
            "implemented": false,
            "kind": "function",
            "modifiers": [],
            "name": "balanceOf",
            "nodeType": "FunctionDefinition",
            "parameters": {
              "id": 1520,
              "nodeType": "ParameterList",
              "parameters": [
                {
                  "constant": false,
                  "id": 1519,
                  "name": "account",
                  "nodeType": "VariableDeclaration",
                  "scope": 1524,
                  "src": "427:15:6",
                  "stateVariable": false,
                  "storageLocation": "default",
                  "typeDescriptions": {
                    "typeIdentifier": "t_address",
                    "typeString": "address"
                  },
                  "typeName": {
                    "id": 1518,
                    "name": "address",
                    "nodeType": "ElementaryTypeName",
                    "src": "427:7:6",
                    "stateMutability": "nonpayable",
                    "typeDescriptions": {
                      "typeIdentifier": "t_address",
                      "typeString": "address"
                    }
                  },
                  "value": null,
                  "visibility": "internal"
                }
              ],
              "src": "426:17:6"
            },
            "returnParameters": {
              "id": 1523,
              "nodeType": "ParameterList",
              "parameters": [
                {
                  "constant": false,
                  "id": 1522,
                  "name": "",
                  "nodeType": "VariableDeclaration",
                  "scope": 1524,
                  "src": "467:7:6",
                  "stateVariable": false,
                  "storageLocation": "default",
                  "typeDescriptions": {
                    "typeIdentifier": "t_uint256",
                    "typeString": "uint256"
                  },
                  "typeName": {
                    "id": 1521,
                    "name": "uint256",
                    "nodeType": "ElementaryTypeName",
                    "src": "467:7:6",
                    "typeDescriptions": {
                      "typeIdentifier": "t_uint256",
                      "typeString": "uint256"
                    }
                  },
                  "value": null,
                  "visibility": "internal"
                }
              ],
              "src": "466:9:6"
            },
            "scope": 1579,
            "src": "408:68:6",
            "stateMutability": "view",
            "superFunction": null,
            "visibility": "external"
          },
          {
            "body": null,
            "documentation": "@dev Moves `amount` tokens from the caller's account to `recipient`.\n     * Returns a boolean value indicating whether the operation succeeded.\n     * Emits a `Transfer` event.",
            "id": 1533,
            "implemented": false,
            "kind": "function",
            "modifiers": [],
            "name": "transfer",
            "nodeType": "FunctionDefinition",
            "parameters": {
              "id": 1529,
              "nodeType": "ParameterList",
              "parameters": [
                {
                  "constant": false,
                  "id": 1526,
                  "name": "recipient",
                  "nodeType": "VariableDeclaration",
                  "scope": 1533,
                  "src": "714:17:6",
                  "stateVariable": false,
                  "storageLocation": "default",
                  "typeDescriptions": {
                    "typeIdentifier": "t_address",
                    "typeString": "address"
                  },
                  "typeName": {
                    "id": 1525,
                    "name": "address",
                    "nodeType": "ElementaryTypeName",
                    "src": "714:7:6",
                    "stateMutability": "nonpayable",
                    "typeDescriptions": {
                      "typeIdentifier": "t_address",
                      "typeString": "address"
                    }
                  },
                  "value": null,
                  "visibility": "internal"
                },
                {
                  "constant": false,
                  "id": 1528,
                  "name": "amount",
                  "nodeType": "VariableDeclaration",
                  "scope": 1533,
                  "src": "733:14:6",
                  "stateVariable": false,
                  "storageLocation": "default",
                  "typeDescriptions": {
                    "typeIdentifier": "t_uint256",
                    "typeString": "uint256"
                  },
                  "typeName": {
                    "id": 1527,
                    "name": "uint256",
                    "nodeType": "ElementaryTypeName",
                    "src": "733:7:6",
                    "typeDescriptions": {
                      "typeIdentifier": "t_uint256",
                      "typeString": "uint256"
                    }
                  },
                  "value": null,
                  "visibility": "internal"
                }
              ],
              "src": "713:35:6"
            },
            "returnParameters": {
              "id": 1532,
              "nodeType": "ParameterList",
              "parameters": [
                {
                  "constant": false,
                  "id": 1531,
                  "name": "",
                  "nodeType": "VariableDeclaration",
                  "scope": 1533,
                  "src": "767:4:6",
                  "stateVariable": false,
                  "storageLocation": "default",
                  "typeDescriptions": {
                    "typeIdentifier": "t_bool",
                    "typeString": "bool"
                  },
                  "typeName": {
                    "id": 1530,
                    "name": "bool",
                    "nodeType": "ElementaryTypeName",
                    "src": "767:4:6",
                    "typeDescriptions": {
                      "typeIdentifier": "t_bool",
                      "typeString": "bool"
                    }
                  },
                  "value": null,
                  "visibility": "internal"
                }
              ],
              "src": "766:6:6"
            },
            "scope": 1579,
            "src": "696:77:6",
            "stateMutability": "nonpayable",
            "superFunction": null,
            "visibility": "external"
          },
          {
            "body": null,
            "documentation": "@dev Returns the remaining number of tokens that `spender` will be\nallowed to spend on behalf of `owner` through `transferFrom`. This is\nzero by default.\n     * This value changes when `approve` or `transferFrom` are called.",
            "id": 1542,
            "implemented": false,
            "kind": "function",
            "modifiers": [],
            "name": "allowance",
            "nodeType": "FunctionDefinition",
            "parameters": {
              "id": 1538,
              "nodeType": "ParameterList",
              "parameters": [
                {
                  "constant": false,
                  "id": 1535,
                  "name": "owner",
                  "nodeType": "VariableDeclaration",
                  "scope": 1542,
                  "src": "1067:13:6",
                  "stateVariable": false,
                  "storageLocation": "default",
                  "typeDescriptions": {
                    "typeIdentifier": "t_address",
                    "typeString": "address"
                  },
                  "typeName": {
                    "id": 1534,
                    "name": "address",
                    "nodeType": "ElementaryTypeName",
                    "src": "1067:7:6",
                    "stateMutability": "nonpayable",
                    "typeDescriptions": {
                      "typeIdentifier": "t_address",
                      "typeString": "address"
                    }
                  },
                  "value": null,
                  "visibility": "internal"
                },
                {
                  "constant": false,
                  "id": 1537,
                  "name": "spender",
                  "nodeType": "VariableDeclaration",
                  "scope": 1542,
                  "src": "1082:15:6",
                  "stateVariable": false,
                  "storageLocation": "default",
                  "typeDescriptions": {
                    "typeIdentifier": "t_address",
                    "typeString": "address"
                  },
                  "typeName": {
                    "id": 1536,
                    "name": "address",
                    "nodeType": "ElementaryTypeName",
                    "src": "1082:7:6",
                    "stateMutability": "nonpayable",
                    "typeDescriptions": {
                      "typeIdentifier": "t_address",
                      "typeString": "address"
                    }
                  },
                  "value": null,
                  "visibility": "internal"
                }
              ],
              "src": "1066:32:6"
            },
            "returnParameters": {
              "id": 1541,
              "nodeType": "ParameterList",
              "parameters": [
                {
                  "constant": false,
                  "id": 1540,
                  "name": "",
                  "nodeType": "VariableDeclaration",
                  "scope": 1542,
                  "src": "1122:7:6",
                  "stateVariable": false,
                  "storageLocation": "default",
                  "typeDescriptions": {
                    "typeIdentifier": "t_uint256",
                    "typeString": "uint256"
                  },
                  "typeName": {
                    "id": 1539,
                    "name": "uint256",
                    "nodeType": "ElementaryTypeName",
                    "src": "1122:7:6",
                    "typeDescriptions": {
                      "typeIdentifier": "t_uint256",
                      "typeString": "uint256"
                    }
                  },
                  "value": null,
                  "visibility": "internal"
                }
              ],
              "src": "1121:9:6"
            },
            "scope": 1579,
            "src": "1048:83:6",
            "stateMutability": "view",
            "superFunction": null,
            "visibility": "external"
          },
          {
            "body": null,
            "documentation": "@dev Sets `amount` as the allowance of `spender` over the caller's tokens.\n     * Returns a boolean value indicating whether the operation succeeded.\n     * > Beware that changing an allowance with this method brings the risk\nthat someone may use both the old and the new allowance by unfortunate\ntransaction ordering. One possible solution to mitigate this race\ncondition is to first reduce the spender's allowance to 0 and set the\ndesired value afterwards:\nhttps://github.com/ethereum/EIPs/issues/20#issuecomment-263524729\n     * Emits an `Approval` event.",
            "id": 1551,
            "implemented": false,
            "kind": "function",
            "modifiers": [],
            "name": "approve",
            "nodeType": "FunctionDefinition",
            "parameters": {
              "id": 1547,
              "nodeType": "ParameterList",
              "parameters": [
                {
                  "constant": false,
                  "id": 1544,
                  "name": "spender",
                  "nodeType": "VariableDeclaration",
                  "scope": 1551,
                  "src": "1792:15:6",
                  "stateVariable": false,
                  "storageLocation": "default",
                  "typeDescriptions": {
                    "typeIdentifier": "t_address",
                    "typeString": "address"
                  },
                  "typeName": {
                    "id": 1543,
                    "name": "address",
                    "nodeType": "ElementaryTypeName",
                    "src": "1792:7:6",
                    "stateMutability": "nonpayable",
                    "typeDescriptions": {
                      "typeIdentifier": "t_address",
                      "typeString": "address"
                    }
                  },
                  "value": null,
                  "visibility": "internal"
                },
                {
                  "constant": false,
                  "id": 1546,
                  "name": "amount",
                  "nodeType": "VariableDeclaration",
                  "scope": 1551,
                  "src": "1809:14:6",
                  "stateVariable": false,
                  "storageLocation": "default",
                  "typeDescriptions": {
                    "typeIdentifier": "t_uint256",
                    "typeString": "uint256"
                  },
                  "typeName": {
                    "id": 1545,
                    "name": "uint256",
                    "nodeType": "ElementaryTypeName",
                    "src": "1809:7:6",
                    "typeDescriptions": {
                      "typeIdentifier": "t_uint256",
                      "typeString": "uint256"
                    }
                  },
                  "value": null,
                  "visibility": "internal"
                }
              ],
              "src": "1791:33:6"
            },
            "returnParameters": {
              "id": 1550,
              "nodeType": "ParameterList",
              "parameters": [
                {
                  "constant": false,
                  "id": 1549,
                  "name": "",
                  "nodeType": "VariableDeclaration",
                  "scope": 1551,
                  "src": "1843:4:6",
                  "stateVariable": false,
                  "storageLocation": "default",
                  "typeDescriptions": {
                    "typeIdentifier": "t_bool",
                    "typeString": "bool"
                  },
                  "typeName": {
                    "id": 1548,
                    "name": "bool",
                    "nodeType": "ElementaryTypeName",
                    "src": "1843:4:6",
                    "typeDescriptions": {
                      "typeIdentifier": "t_bool",
                      "typeString": "bool"
                    }
                  },
                  "value": null,
                  "visibility": "internal"
                }
              ],
              "src": "1842:6:6"
            },
            "scope": 1579,
            "src": "1775:74:6",
            "stateMutability": "nonpayable",
            "superFunction": null,
            "visibility": "external"
          },
          {
            "body": null,
            "documentation": "@dev Moves `amount` tokens from `sender` to `recipient` using the\nallowance mechanism. `amount` is then deducted from the caller's\nallowance.\n     * Returns a boolean value indicating whether the operation succeeded.\n     * Emits a `Transfer` event.",
            "id": 1562,
            "implemented": false,
            "kind": "function",
            "modifiers": [],
            "name": "transferFrom",
            "nodeType": "FunctionDefinition",
            "parameters": {
              "id": 1558,
              "nodeType": "ParameterList",
              "parameters": [
                {
                  "constant": false,
                  "id": 1553,
                  "name": "sender",
                  "nodeType": "VariableDeclaration",
                  "scope": 1562,
                  "src": "2178:14:6",
                  "stateVariable": false,
                  "storageLocation": "default",
                  "typeDescriptions": {
                    "typeIdentifier": "t_address",
                    "typeString": "address"
                  },
                  "typeName": {
                    "id": 1552,
                    "name": "address",
                    "nodeType": "ElementaryTypeName",
                    "src": "2178:7:6",
                    "stateMutability": "nonpayable",
                    "typeDescriptions": {
                      "typeIdentifier": "t_address",
                      "typeString": "address"
                    }
                  },
                  "value": null,
                  "visibility": "internal"
                },
                {
                  "constant": false,
                  "id": 1555,
                  "name": "recipient",
                  "nodeType": "VariableDeclaration",
                  "scope": 1562,
                  "src": "2194:17:6",
                  "stateVariable": false,
                  "storageLocation": "default",
                  "typeDescriptions": {
                    "typeIdentifier": "t_address",
                    "typeString": "address"
                  },
                  "typeName": {
                    "id": 1554,
                    "name": "address",
                    "nodeType": "ElementaryTypeName",
                    "src": "2194:7:6",
                    "stateMutability": "nonpayable",
                    "typeDescriptions": {
                      "typeIdentifier": "t_address",
                      "typeString": "address"
                    }
                  },
                  "value": null,
                  "visibility": "internal"
                },
                {
                  "constant": false,
                  "id": 1557,
                  "name": "amount",
                  "nodeType": "VariableDeclaration",
                  "scope": 1562,
                  "src": "2213:14:6",
                  "stateVariable": false,
                  "storageLocation": "default",
                  "typeDescriptions": {
                    "typeIdentifier": "t_uint256",
                    "typeString": "uint256"
                  },
                  "typeName": {
                    "id": 1556,
                    "name": "uint256",
                    "nodeType": "ElementaryTypeName",
                    "src": "2213:7:6",
                    "typeDescriptions": {
                      "typeIdentifier": "t_uint256",
                      "typeString": "uint256"
                    }
                  },
                  "value": null,
                  "visibility": "internal"
                }
              ],
              "src": "2177:51:6"
            },
            "returnParameters": {
              "id": 1561,
              "nodeType": "ParameterList",
              "parameters": [
                {
                  "constant": false,
                  "id": 1560,
                  "name": "",
                  "nodeType": "VariableDeclaration",
                  "scope": 1562,
                  "src": "2247:4:6",
                  "stateVariable": false,
                  "storageLocation": "default",
                  "typeDescriptions": {
                    "typeIdentifier": "t_bool",
                    "typeString": "bool"
                  },
                  "typeName": {
                    "id": 1559,
                    "name": "bool",
                    "nodeType": "ElementaryTypeName",
                    "src": "2247:4:6",
                    "typeDescriptions": {
                      "typeIdentifier": "t_bool",
                      "typeString": "bool"
                    }
                  },
                  "value": null,
                  "visibility": "internal"
                }
              ],
              "src": "2246:6:6"
            },
            "scope": 1579,
            "src": "2156:97:6",
            "stateMutability": "nonpayable",
            "superFunction": null,
            "visibility": "external"
          },
          {
            "anonymous": false,
            "documentation": "@dev Emitted when `value` tokens are moved from one account (`from`) to\nanother (`to`).\n     * Note that `value` may be zero.",
            "id": 1570,
            "name": "Transfer",
            "nodeType": "EventDefinition",
            "parameters": {
              "id": 1569,
              "nodeType": "ParameterList",
              "parameters": [
                {
                  "constant": false,
                  "id": 1564,
                  "indexed": true,
                  "name": "from",
                  "nodeType": "VariableDeclaration",
                  "scope": 1570,
                  "src": "2437:20:6",
                  "stateVariable": false,
                  "storageLocation": "default",
                  "typeDescriptions": {
                    "typeIdentifier": "t_address",
                    "typeString": "address"
                  },
                  "typeName": {
                    "id": 1563,
                    "name": "address",
                    "nodeType": "ElementaryTypeName",
                    "src": "2437:7:6",
                    "stateMutability": "nonpayable",
                    "typeDescriptions": {
                      "typeIdentifier": "t_address",
                      "typeString": "address"
                    }
                  },
                  "value": null,
                  "visibility": "internal"
                },
                {
                  "constant": false,
                  "id": 1566,
                  "indexed": true,
                  "name": "to",
                  "nodeType": "VariableDeclaration",
                  "scope": 1570,
                  "src": "2459:18:6",
                  "stateVariable": false,
                  "storageLocation": "default",
                  "typeDescriptions": {
                    "typeIdentifier": "t_address",
                    "typeString": "address"
                  },
                  "typeName": {
                    "id": 1565,
                    "name": "address",
                    "nodeType": "ElementaryTypeName",
                    "src": "2459:7:6",
                    "stateMutability": "nonpayable",
                    "typeDescriptions": {
                      "typeIdentifier": "t_address",
                      "typeString": "address"
                    }
                  },
                  "value": null,
                  "visibility": "internal"
                },
                {
                  "constant": false,
                  "id": 1568,
                  "indexed": false,
                  "name": "value",
                  "nodeType": "VariableDeclaration",
                  "scope": 1570,
                  "src": "2479:13:6",
                  "stateVariable": false,
                  "storageLocation": "default",
                  "typeDescriptions": {
                    "typeIdentifier": "t_uint256",
                    "typeString": "uint256"
                  },
                  "typeName": {
                    "id": 1567,
                    "name": "uint256",
                    "nodeType": "ElementaryTypeName",
                    "src": "2479:7:6",
                    "typeDescriptions": {
                      "typeIdentifier": "t_uint256",
                      "typeString": "uint256"
                    }
                  },
                  "value": null,
                  "visibility": "internal"
                }
              ],
              "src": "2436:57:6"
            },
            "src": "2422:72:6"
          },
          {
            "anonymous": false,
            "documentation": "@dev Emitted when the allowance of a `spender` for an `owner` is set by\na call to `approve`. `value` is the new allowance.",
            "id": 1578,
            "name": "Approval",
            "nodeType": "EventDefinition",
            "parameters": {
              "id": 1577,
              "nodeType": "ParameterList",
              "parameters": [
                {
                  "constant": false,
                  "id": 1572,
                  "indexed": true,
                  "name": "owner",
                  "nodeType": "VariableDeclaration",
                  "scope": 1578,
                  "src": "2668:21:6",
                  "stateVariable": false,
                  "storageLocation": "default",
                  "typeDescriptions": {
                    "typeIdentifier": "t_address",
                    "typeString": "address"
                  },
                  "typeName": {
                    "id": 1571,
                    "name": "address",
                    "nodeType": "ElementaryTypeName",
                    "src": "2668:7:6",
                    "stateMutability": "nonpayable",
                    "typeDescriptions": {
                      "typeIdentifier": "t_address",
                      "typeString": "address"
                    }
                  },
                  "value": null,
                  "visibility": "internal"
                },
                {
                  "constant": false,
                  "id": 1574,
                  "indexed": true,
                  "name": "spender",
                  "nodeType": "VariableDeclaration",
                  "scope": 1578,
                  "src": "2691:23:6",
                  "stateVariable": false,
                  "storageLocation": "default",
                  "typeDescriptions": {
                    "typeIdentifier": "t_address",
                    "typeString": "address"
                  },
                  "typeName": {
                    "id": 1573,
                    "name": "address",
                    "nodeType": "ElementaryTypeName",
                    "src": "2691:7:6",
                    "stateMutability": "nonpayable",
                    "typeDescriptions": {
                      "typeIdentifier": "t_address",
                      "typeString": "address"
                    }
                  },
                  "value": null,
                  "visibility": "internal"
                },
                {
                  "constant": false,
                  "id": 1576,
                  "indexed": false,
                  "name": "value",
                  "nodeType": "VariableDeclaration",
                  "scope": 1578,
                  "src": "2716:13:6",
                  "stateVariable": false,
                  "storageLocation": "default",
                  "typeDescriptions": {
                    "typeIdentifier": "t_uint256",
                    "typeString": "uint256"
                  },
                  "typeName": {
                    "id": 1575,
                    "name": "uint256",
                    "nodeType": "ElementaryTypeName",
                    "src": "2716:7:6",
                    "typeDescriptions": {
                      "typeIdentifier": "t_uint256",
                      "typeString": "uint256"
                    }
                  },
                  "value": null,
                  "visibility": "internal"
                }
              ],
              "src": "2667:63:6"
            },
            "src": "2653:78:6"
          }
        ],
        "scope": 1580,
        "src": "176:2557:6"
      }
    ],
    "src": "0:2734:6"
  },
  "legacyAST": {
    "absolutePath": "/C/Users/robin/code/rebalance/packages/contracts/node_modules/@openzeppelin/contracts/token/ERC20/IERC20.sol",
    "exportedSymbols": {
      "IERC20": [
        1579
      ]
    },
    "id": 1580,
    "nodeType": "SourceUnit",
    "nodes": [
      {
        "id": 1512,
        "literals": [
          "solidity",
          "^",
          "0.5",
          ".0"
        ],
        "nodeType": "PragmaDirective",
        "src": "0:23:6"
      },
      {
        "baseContracts": [],
        "contractDependencies": [],
        "contractKind": "interface",
        "documentation": "@dev Interface of the ERC20 standard as defined in the EIP. Does not include\nthe optional functions; to access them see `ERC20Detailed`.",
        "fullyImplemented": false,
        "id": 1579,
        "linearizedBaseContracts": [
          1579
        ],
        "name": "IERC20",
        "nodeType": "ContractDefinition",
        "nodes": [
          {
            "body": null,
            "documentation": "@dev Returns the amount of tokens in existence.",
            "id": 1517,
            "implemented": false,
            "kind": "function",
            "modifiers": [],
            "name": "totalSupply",
            "nodeType": "FunctionDefinition",
            "parameters": {
              "id": 1513,
              "nodeType": "ParameterList",
              "parameters": [],
              "src": "290:2:6"
            },
            "returnParameters": {
              "id": 1516,
              "nodeType": "ParameterList",
              "parameters": [
                {
                  "constant": false,
                  "id": 1515,
                  "name": "",
                  "nodeType": "VariableDeclaration",
                  "scope": 1517,
                  "src": "316:7:6",
                  "stateVariable": false,
                  "storageLocation": "default",
                  "typeDescriptions": {
                    "typeIdentifier": "t_uint256",
                    "typeString": "uint256"
                  },
                  "typeName": {
                    "id": 1514,
                    "name": "uint256",
                    "nodeType": "ElementaryTypeName",
                    "src": "316:7:6",
                    "typeDescriptions": {
                      "typeIdentifier": "t_uint256",
                      "typeString": "uint256"
                    }
                  },
                  "value": null,
                  "visibility": "internal"
                }
              ],
              "src": "315:9:6"
            },
            "scope": 1579,
            "src": "270:55:6",
            "stateMutability": "view",
            "superFunction": null,
            "visibility": "external"
          },
          {
            "body": null,
            "documentation": "@dev Returns the amount of tokens owned by `account`.",
            "id": 1524,
            "implemented": false,
            "kind": "function",
            "modifiers": [],
            "name": "balanceOf",
            "nodeType": "FunctionDefinition",
            "parameters": {
              "id": 1520,
              "nodeType": "ParameterList",
              "parameters": [
                {
                  "constant": false,
                  "id": 1519,
                  "name": "account",
                  "nodeType": "VariableDeclaration",
                  "scope": 1524,
                  "src": "427:15:6",
                  "stateVariable": false,
                  "storageLocation": "default",
                  "typeDescriptions": {
                    "typeIdentifier": "t_address",
                    "typeString": "address"
                  },
                  "typeName": {
                    "id": 1518,
                    "name": "address",
                    "nodeType": "ElementaryTypeName",
                    "src": "427:7:6",
                    "stateMutability": "nonpayable",
                    "typeDescriptions": {
                      "typeIdentifier": "t_address",
                      "typeString": "address"
                    }
                  },
                  "value": null,
                  "visibility": "internal"
                }
              ],
              "src": "426:17:6"
            },
            "returnParameters": {
              "id": 1523,
              "nodeType": "ParameterList",
              "parameters": [
                {
                  "constant": false,
                  "id": 1522,
                  "name": "",
                  "nodeType": "VariableDeclaration",
                  "scope": 1524,
                  "src": "467:7:6",
                  "stateVariable": false,
                  "storageLocation": "default",
                  "typeDescriptions": {
                    "typeIdentifier": "t_uint256",
                    "typeString": "uint256"
                  },
                  "typeName": {
                    "id": 1521,
                    "name": "uint256",
                    "nodeType": "ElementaryTypeName",
                    "src": "467:7:6",
                    "typeDescriptions": {
                      "typeIdentifier": "t_uint256",
                      "typeString": "uint256"
                    }
                  },
                  "value": null,
                  "visibility": "internal"
                }
              ],
              "src": "466:9:6"
            },
            "scope": 1579,
            "src": "408:68:6",
            "stateMutability": "view",
            "superFunction": null,
            "visibility": "external"
          },
          {
            "body": null,
            "documentation": "@dev Moves `amount` tokens from the caller's account to `recipient`.\n     * Returns a boolean value indicating whether the operation succeeded.\n     * Emits a `Transfer` event.",
            "id": 1533,
            "implemented": false,
            "kind": "function",
            "modifiers": [],
            "name": "transfer",
            "nodeType": "FunctionDefinition",
            "parameters": {
              "id": 1529,
              "nodeType": "ParameterList",
              "parameters": [
                {
                  "constant": false,
                  "id": 1526,
                  "name": "recipient",
                  "nodeType": "VariableDeclaration",
                  "scope": 1533,
                  "src": "714:17:6",
                  "stateVariable": false,
                  "storageLocation": "default",
                  "typeDescriptions": {
                    "typeIdentifier": "t_address",
                    "typeString": "address"
                  },
                  "typeName": {
                    "id": 1525,
                    "name": "address",
                    "nodeType": "ElementaryTypeName",
                    "src": "714:7:6",
                    "stateMutability": "nonpayable",
                    "typeDescriptions": {
                      "typeIdentifier": "t_address",
                      "typeString": "address"
                    }
                  },
                  "value": null,
                  "visibility": "internal"
                },
                {
                  "constant": false,
                  "id": 1528,
                  "name": "amount",
                  "nodeType": "VariableDeclaration",
                  "scope": 1533,
                  "src": "733:14:6",
                  "stateVariable": false,
                  "storageLocation": "default",
                  "typeDescriptions": {
                    "typeIdentifier": "t_uint256",
                    "typeString": "uint256"
                  },
                  "typeName": {
                    "id": 1527,
                    "name": "uint256",
                    "nodeType": "ElementaryTypeName",
                    "src": "733:7:6",
                    "typeDescriptions": {
                      "typeIdentifier": "t_uint256",
                      "typeString": "uint256"
                    }
                  },
                  "value": null,
                  "visibility": "internal"
                }
              ],
              "src": "713:35:6"
            },
            "returnParameters": {
              "id": 1532,
              "nodeType": "ParameterList",
              "parameters": [
                {
                  "constant": false,
                  "id": 1531,
                  "name": "",
                  "nodeType": "VariableDeclaration",
                  "scope": 1533,
                  "src": "767:4:6",
                  "stateVariable": false,
                  "storageLocation": "default",
                  "typeDescriptions": {
                    "typeIdentifier": "t_bool",
                    "typeString": "bool"
                  },
                  "typeName": {
                    "id": 1530,
                    "name": "bool",
                    "nodeType": "ElementaryTypeName",
                    "src": "767:4:6",
                    "typeDescriptions": {
                      "typeIdentifier": "t_bool",
                      "typeString": "bool"
                    }
                  },
                  "value": null,
                  "visibility": "internal"
                }
              ],
              "src": "766:6:6"
            },
            "scope": 1579,
            "src": "696:77:6",
            "stateMutability": "nonpayable",
            "superFunction": null,
            "visibility": "external"
          },
          {
            "body": null,
            "documentation": "@dev Returns the remaining number of tokens that `spender` will be\nallowed to spend on behalf of `owner` through `transferFrom`. This is\nzero by default.\n     * This value changes when `approve` or `transferFrom` are called.",
            "id": 1542,
            "implemented": false,
            "kind": "function",
            "modifiers": [],
            "name": "allowance",
            "nodeType": "FunctionDefinition",
            "parameters": {
              "id": 1538,
              "nodeType": "ParameterList",
              "parameters": [
                {
                  "constant": false,
                  "id": 1535,
                  "name": "owner",
                  "nodeType": "VariableDeclaration",
                  "scope": 1542,
                  "src": "1067:13:6",
                  "stateVariable": false,
                  "storageLocation": "default",
                  "typeDescriptions": {
                    "typeIdentifier": "t_address",
                    "typeString": "address"
                  },
                  "typeName": {
                    "id": 1534,
                    "name": "address",
                    "nodeType": "ElementaryTypeName",
                    "src": "1067:7:6",
                    "stateMutability": "nonpayable",
                    "typeDescriptions": {
                      "typeIdentifier": "t_address",
                      "typeString": "address"
                    }
                  },
                  "value": null,
                  "visibility": "internal"
                },
                {
                  "constant": false,
                  "id": 1537,
                  "name": "spender",
                  "nodeType": "VariableDeclaration",
                  "scope": 1542,
                  "src": "1082:15:6",
                  "stateVariable": false,
                  "storageLocation": "default",
                  "typeDescriptions": {
                    "typeIdentifier": "t_address",
                    "typeString": "address"
                  },
                  "typeName": {
                    "id": 1536,
                    "name": "address",
                    "nodeType": "ElementaryTypeName",
                    "src": "1082:7:6",
                    "stateMutability": "nonpayable",
                    "typeDescriptions": {
                      "typeIdentifier": "t_address",
                      "typeString": "address"
                    }
                  },
                  "value": null,
                  "visibility": "internal"
                }
              ],
              "src": "1066:32:6"
            },
            "returnParameters": {
              "id": 1541,
              "nodeType": "ParameterList",
              "parameters": [
                {
                  "constant": false,
                  "id": 1540,
                  "name": "",
                  "nodeType": "VariableDeclaration",
                  "scope": 1542,
                  "src": "1122:7:6",
                  "stateVariable": false,
                  "storageLocation": "default",
                  "typeDescriptions": {
                    "typeIdentifier": "t_uint256",
                    "typeString": "uint256"
                  },
                  "typeName": {
                    "id": 1539,
                    "name": "uint256",
                    "nodeType": "ElementaryTypeName",
                    "src": "1122:7:6",
                    "typeDescriptions": {
                      "typeIdentifier": "t_uint256",
                      "typeString": "uint256"
                    }
                  },
                  "value": null,
                  "visibility": "internal"
                }
              ],
              "src": "1121:9:6"
            },
            "scope": 1579,
            "src": "1048:83:6",
            "stateMutability": "view",
            "superFunction": null,
            "visibility": "external"
          },
          {
            "body": null,
            "documentation": "@dev Sets `amount` as the allowance of `spender` over the caller's tokens.\n     * Returns a boolean value indicating whether the operation succeeded.\n     * > Beware that changing an allowance with this method brings the risk\nthat someone may use both the old and the new allowance by unfortunate\ntransaction ordering. One possible solution to mitigate this race\ncondition is to first reduce the spender's allowance to 0 and set the\ndesired value afterwards:\nhttps://github.com/ethereum/EIPs/issues/20#issuecomment-263524729\n     * Emits an `Approval` event.",
            "id": 1551,
            "implemented": false,
            "kind": "function",
            "modifiers": [],
            "name": "approve",
            "nodeType": "FunctionDefinition",
            "parameters": {
              "id": 1547,
              "nodeType": "ParameterList",
              "parameters": [
                {
                  "constant": false,
                  "id": 1544,
                  "name": "spender",
                  "nodeType": "VariableDeclaration",
                  "scope": 1551,
                  "src": "1792:15:6",
                  "stateVariable": false,
                  "storageLocation": "default",
                  "typeDescriptions": {
                    "typeIdentifier": "t_address",
                    "typeString": "address"
                  },
                  "typeName": {
                    "id": 1543,
                    "name": "address",
                    "nodeType": "ElementaryTypeName",
                    "src": "1792:7:6",
                    "stateMutability": "nonpayable",
                    "typeDescriptions": {
                      "typeIdentifier": "t_address",
                      "typeString": "address"
                    }
                  },
                  "value": null,
                  "visibility": "internal"
                },
                {
                  "constant": false,
                  "id": 1546,
                  "name": "amount",
                  "nodeType": "VariableDeclaration",
                  "scope": 1551,
                  "src": "1809:14:6",
                  "stateVariable": false,
                  "storageLocation": "default",
                  "typeDescriptions": {
                    "typeIdentifier": "t_uint256",
                    "typeString": "uint256"
                  },
                  "typeName": {
                    "id": 1545,
                    "name": "uint256",
                    "nodeType": "ElementaryTypeName",
                    "src": "1809:7:6",
                    "typeDescriptions": {
                      "typeIdentifier": "t_uint256",
                      "typeString": "uint256"
                    }
                  },
                  "value": null,
                  "visibility": "internal"
                }
              ],
              "src": "1791:33:6"
            },
            "returnParameters": {
              "id": 1550,
              "nodeType": "ParameterList",
              "parameters": [
                {
                  "constant": false,
                  "id": 1549,
                  "name": "",
                  "nodeType": "VariableDeclaration",
                  "scope": 1551,
                  "src": "1843:4:6",
                  "stateVariable": false,
                  "storageLocation": "default",
                  "typeDescriptions": {
                    "typeIdentifier": "t_bool",
                    "typeString": "bool"
                  },
                  "typeName": {
                    "id": 1548,
                    "name": "bool",
                    "nodeType": "ElementaryTypeName",
                    "src": "1843:4:6",
                    "typeDescriptions": {
                      "typeIdentifier": "t_bool",
                      "typeString": "bool"
                    }
                  },
                  "value": null,
                  "visibility": "internal"
                }
              ],
              "src": "1842:6:6"
            },
            "scope": 1579,
            "src": "1775:74:6",
            "stateMutability": "nonpayable",
            "superFunction": null,
            "visibility": "external"
          },
          {
            "body": null,
            "documentation": "@dev Moves `amount` tokens from `sender` to `recipient` using the\nallowance mechanism. `amount` is then deducted from the caller's\nallowance.\n     * Returns a boolean value indicating whether the operation succeeded.\n     * Emits a `Transfer` event.",
            "id": 1562,
            "implemented": false,
            "kind": "function",
            "modifiers": [],
            "name": "transferFrom",
            "nodeType": "FunctionDefinition",
            "parameters": {
              "id": 1558,
              "nodeType": "ParameterList",
              "parameters": [
                {
                  "constant": false,
                  "id": 1553,
                  "name": "sender",
                  "nodeType": "VariableDeclaration",
                  "scope": 1562,
                  "src": "2178:14:6",
                  "stateVariable": false,
                  "storageLocation": "default",
                  "typeDescriptions": {
                    "typeIdentifier": "t_address",
                    "typeString": "address"
                  },
                  "typeName": {
                    "id": 1552,
                    "name": "address",
                    "nodeType": "ElementaryTypeName",
                    "src": "2178:7:6",
                    "stateMutability": "nonpayable",
                    "typeDescriptions": {
                      "typeIdentifier": "t_address",
                      "typeString": "address"
                    }
                  },
                  "value": null,
                  "visibility": "internal"
                },
                {
                  "constant": false,
                  "id": 1555,
                  "name": "recipient",
                  "nodeType": "VariableDeclaration",
                  "scope": 1562,
                  "src": "2194:17:6",
                  "stateVariable": false,
                  "storageLocation": "default",
                  "typeDescriptions": {
                    "typeIdentifier": "t_address",
                    "typeString": "address"
                  },
                  "typeName": {
                    "id": 1554,
                    "name": "address",
                    "nodeType": "ElementaryTypeName",
                    "src": "2194:7:6",
                    "stateMutability": "nonpayable",
                    "typeDescriptions": {
                      "typeIdentifier": "t_address",
                      "typeString": "address"
                    }
                  },
                  "value": null,
                  "visibility": "internal"
                },
                {
                  "constant": false,
                  "id": 1557,
                  "name": "amount",
                  "nodeType": "VariableDeclaration",
                  "scope": 1562,
                  "src": "2213:14:6",
                  "stateVariable": false,
                  "storageLocation": "default",
                  "typeDescriptions": {
                    "typeIdentifier": "t_uint256",
                    "typeString": "uint256"
                  },
                  "typeName": {
                    "id": 1556,
                    "name": "uint256",
                    "nodeType": "ElementaryTypeName",
                    "src": "2213:7:6",
                    "typeDescriptions": {
                      "typeIdentifier": "t_uint256",
                      "typeString": "uint256"
                    }
                  },
                  "value": null,
                  "visibility": "internal"
                }
              ],
              "src": "2177:51:6"
            },
            "returnParameters": {
              "id": 1561,
              "nodeType": "ParameterList",
              "parameters": [
                {
                  "constant": false,
                  "id": 1560,
                  "name": "",
                  "nodeType": "VariableDeclaration",
                  "scope": 1562,
                  "src": "2247:4:6",
                  "stateVariable": false,
                  "storageLocation": "default",
                  "typeDescriptions": {
                    "typeIdentifier": "t_bool",
                    "typeString": "bool"
                  },
                  "typeName": {
                    "id": 1559,
                    "name": "bool",
                    "nodeType": "ElementaryTypeName",
                    "src": "2247:4:6",
                    "typeDescriptions": {
                      "typeIdentifier": "t_bool",
                      "typeString": "bool"
                    }
                  },
                  "value": null,
                  "visibility": "internal"
                }
              ],
              "src": "2246:6:6"
            },
            "scope": 1579,
            "src": "2156:97:6",
            "stateMutability": "nonpayable",
            "superFunction": null,
            "visibility": "external"
          },
          {
            "anonymous": false,
            "documentation": "@dev Emitted when `value` tokens are moved from one account (`from`) to\nanother (`to`).\n     * Note that `value` may be zero.",
            "id": 1570,
            "name": "Transfer",
            "nodeType": "EventDefinition",
            "parameters": {
              "id": 1569,
              "nodeType": "ParameterList",
              "parameters": [
                {
                  "constant": false,
                  "id": 1564,
                  "indexed": true,
                  "name": "from",
                  "nodeType": "VariableDeclaration",
                  "scope": 1570,
                  "src": "2437:20:6",
                  "stateVariable": false,
                  "storageLocation": "default",
                  "typeDescriptions": {
                    "typeIdentifier": "t_address",
                    "typeString": "address"
                  },
                  "typeName": {
                    "id": 1563,
                    "name": "address",
                    "nodeType": "ElementaryTypeName",
                    "src": "2437:7:6",
                    "stateMutability": "nonpayable",
                    "typeDescriptions": {
                      "typeIdentifier": "t_address",
                      "typeString": "address"
                    }
                  },
                  "value": null,
                  "visibility": "internal"
                },
                {
                  "constant": false,
                  "id": 1566,
                  "indexed": true,
                  "name": "to",
                  "nodeType": "VariableDeclaration",
                  "scope": 1570,
                  "src": "2459:18:6",
                  "stateVariable": false,
                  "storageLocation": "default",
                  "typeDescriptions": {
                    "typeIdentifier": "t_address",
                    "typeString": "address"
                  },
                  "typeName": {
                    "id": 1565,
                    "name": "address",
                    "nodeType": "ElementaryTypeName",
                    "src": "2459:7:6",
                    "stateMutability": "nonpayable",
                    "typeDescriptions": {
                      "typeIdentifier": "t_address",
                      "typeString": "address"
                    }
                  },
                  "value": null,
                  "visibility": "internal"
                },
                {
                  "constant": false,
                  "id": 1568,
                  "indexed": false,
                  "name": "value",
                  "nodeType": "VariableDeclaration",
                  "scope": 1570,
                  "src": "2479:13:6",
                  "stateVariable": false,
                  "storageLocation": "default",
                  "typeDescriptions": {
                    "typeIdentifier": "t_uint256",
                    "typeString": "uint256"
                  },
                  "typeName": {
                    "id": 1567,
                    "name": "uint256",
                    "nodeType": "ElementaryTypeName",
                    "src": "2479:7:6",
                    "typeDescriptions": {
                      "typeIdentifier": "t_uint256",
                      "typeString": "uint256"
                    }
                  },
                  "value": null,
                  "visibility": "internal"
                }
              ],
              "src": "2436:57:6"
            },
            "src": "2422:72:6"
          },
          {
            "anonymous": false,
            "documentation": "@dev Emitted when the allowance of a `spender` for an `owner` is set by\na call to `approve`. `value` is the new allowance.",
            "id": 1578,
            "name": "Approval",
            "nodeType": "EventDefinition",
            "parameters": {
              "id": 1577,
              "nodeType": "ParameterList",
              "parameters": [
                {
                  "constant": false,
                  "id": 1572,
                  "indexed": true,
                  "name": "owner",
                  "nodeType": "VariableDeclaration",
                  "scope": 1578,
                  "src": "2668:21:6",
                  "stateVariable": false,
                  "storageLocation": "default",
                  "typeDescriptions": {
                    "typeIdentifier": "t_address",
                    "typeString": "address"
                  },
                  "typeName": {
                    "id": 1571,
                    "name": "address",
                    "nodeType": "ElementaryTypeName",
                    "src": "2668:7:6",
                    "stateMutability": "nonpayable",
                    "typeDescriptions": {
                      "typeIdentifier": "t_address",
                      "typeString": "address"
                    }
                  },
                  "value": null,
                  "visibility": "internal"
                },
                {
                  "constant": false,
                  "id": 1574,
                  "indexed": true,
                  "name": "spender",
                  "nodeType": "VariableDeclaration",
                  "scope": 1578,
                  "src": "2691:23:6",
                  "stateVariable": false,
                  "storageLocation": "default",
                  "typeDescriptions": {
                    "typeIdentifier": "t_address",
                    "typeString": "address"
                  },
                  "typeName": {
                    "id": 1573,
                    "name": "address",
                    "nodeType": "ElementaryTypeName",
                    "src": "2691:7:6",
                    "stateMutability": "nonpayable",
                    "typeDescriptions": {
                      "typeIdentifier": "t_address",
                      "typeString": "address"
                    }
                  },
                  "value": null,
                  "visibility": "internal"
                },
                {
                  "constant": false,
                  "id": 1576,
                  "indexed": false,
                  "name": "value",
                  "nodeType": "VariableDeclaration",
                  "scope": 1578,
                  "src": "2716:13:6",
                  "stateVariable": false,
                  "storageLocation": "default",
                  "typeDescriptions": {
                    "typeIdentifier": "t_uint256",
                    "typeString": "uint256"
                  },
                  "typeName": {
                    "id": 1575,
                    "name": "uint256",
                    "nodeType": "ElementaryTypeName",
                    "src": "2716:7:6",
                    "typeDescriptions": {
                      "typeIdentifier": "t_uint256",
                      "typeString": "uint256"
                    }
                  },
                  "value": null,
                  "visibility": "internal"
                }
              ],
              "src": "2667:63:6"
            },
            "src": "2653:78:6"
          }
        ],
        "scope": 1580,
        "src": "176:2557:6"
      }
    ],
    "src": "0:2734:6"
  },
  "compiler": {
    "name": "solc",
    "version": "0.5.8+commit.23d335f2.Emscripten.clang"
  },
  "networks": {},
  "schemaVersion": "3.0.11",
  "updatedAt": "2019-08-13T07:30:45.635Z",
  "devdoc": {
    "details": "Interface of the ERC20 standard as defined in the EIP. Does not include the optional functions; to access them see `ERC20Detailed`.",
    "methods": {
      "allowance(address,address)": {
        "details": "Returns the remaining number of tokens that `spender` will be allowed to spend on behalf of `owner` through `transferFrom`. This is zero by default.     * This value changes when `approve` or `transferFrom` are called."
      },
      "approve(address,uint256)": {
        "details": "Sets `amount` as the allowance of `spender` over the caller's tokens.     * Returns a boolean value indicating whether the operation succeeded.     * > Beware that changing an allowance with this method brings the risk that someone may use both the old and the new allowance by unfortunate transaction ordering. One possible solution to mitigate this race condition is to first reduce the spender's allowance to 0 and set the desired value afterwards: https://github.com/ethereum/EIPs/issues/20#issuecomment-263524729     * Emits an `Approval` event."
      },
      "balanceOf(address)": {
        "details": "Returns the amount of tokens owned by `account`."
      },
      "totalSupply()": {
        "details": "Returns the amount of tokens in existence."
      },
      "transfer(address,uint256)": {
        "details": "Moves `amount` tokens from the caller's account to `recipient`.     * Returns a boolean value indicating whether the operation succeeded.     * Emits a `Transfer` event."
      },
      "transferFrom(address,address,uint256)": {
        "details": "Moves `amount` tokens from `sender` to `recipient` using the allowance mechanism. `amount` is then deducted from the caller's allowance.     * Returns a boolean value indicating whether the operation succeeded.     * Emits a `Transfer` event."
      }
    }
  },
  "userdoc": {
    "methods": {}
  }
}